{
    "KPlugin": {
        "Authors": [
            {
                "Email": "devin@kde.org",
                "Name": "Devin Lin",
                "Name[az]": "Devin Lin",
                "Name[ca@valencia]": "Devin Lin",
                "Name[ca]": "Devin Lin",
                "Name[de]": "Devin Lin",
                "Name[en_GB]": "Devin Lin",
                "Name[es]": "Devin Lin",
                "Name[eu]": "Devin Lin",
                "Name[fi]": "Devin Lin",
                "Name[fr]": "Devin Lin",
                "Name[is]": "Devin Lin",
                "Name[it]": "Devin Lin",
                "Name[ka]": "Devin Lin",
                "Name[nl]": "Devin Lin",
                "Name[pl]": "Devin Lin",
                "Name[pt]": "Devin Lin",
                "Name[pt_BR]": "Devin Lin",
                "Name[ru]": "Devin Lin",
                "Name[sl]": "Devin Lin",
                "Name[sv]": "Devin Lin",
                "Name[tr]": "Devin Lin",
                "Name[uk]": "Devin Lin",
                "Name[x-test]": "xxDevin Linxx",
                "Name[zh_CN]": "Devin Lin"
            }
        ],
        "Description": "Quick setting to toggle do not disturb mode",
        "Description[ca@valencia]": "Configuració ràpida per a canviar el mode no destorbar",
        "Description[ca]": "Configuració ràpida per canviar el mode no destorbar",
        "Description[en_GB]": "Quick setting to toggle do not disturb mode",
        "Description[es]": "Ajuste rápido para cambiar el modo «no molestar»",
        "Description[eu]": "Zaratarik ez modua txandakatzeko ezarpen azkarra",
        "Description[fr]": "Configuration rapide pour basculer ou non en mode « Ne pas déranger »",
        "Description[is]": "Flýtistilling til að víxla 'Ekki ónáða' af/á",
        "Description[it]": "Impostazione rapida per commutare la modalità Non disturbare",
        "Description[ka]": "სისტემის ძილის შეწყვეტის სწრაფი მორგება",
        "Description[nl]": "Snelle instelling om modus niet storen om te schakelen",
        "Description[pl]": "Szybkie ustawienie do przełączania trybu nie-przeszkadzać",
        "Description[pt]": "Configuração rápida para activar/desactivar o modo 'não incomodar'",
        "Description[ru]": "Быстрое включение или отключение режима «не беспокоить»",
        "Description[sl]": "Hitre nastavitve za preklop v način Ne moti",
        "Description[sv]": "Snabbinställning för att ändra stör ej",
        "Description[tr]": "Rahatsız etme kipini açıp/kapatmak için tez ayar",
        "Description[uk]": "Швидке встановлення режиму «не турбувати»",
        "Description[x-test]": "xxQuick setting to toggle do not disturb modexx",
        "Icon": "notifications",
        "Id": "org.kde.plasma.quicksetting.donotdisturb",
        "License": "GPL",
        "Name": "Do Not Disturb",
        "Name[ca@valencia]": "No destorbar",
        "Name[ca]": "No destorbar",
        "Name[en_GB]": "Do Not Disturb",
        "Name[es]": "No molestar",
        "Name[eu]": "Zatarik ez",
        "Name[fr]": "Ne pas déranger",
        "Name[is]": "Ekki ónáða",
        "Name[it]": "Non disturbare",
        "Name[ka]": "არ შემაწუხო",
        "Name[nl]": "Niet storen",
        "Name[pl]": "Nie przeszkadzać",
        "Name[pt]": "Não Incomodar",
        "Name[pt_BR]": "Não perturbe",
        "Name[ru]": "Не беспокоить",
        "Name[sl]": "Ne moti",
        "Name[sv]": "Stör ej",
        "Name[tr]": "Rahatsız Etme",
        "Name[uk]": "Не турбувати",
        "Name[x-test]": "xxDo Not Disturbxx",
        "ServiceTypes": [
            "KPackage/GenericQML"
        ],
        "Version": "0.1",
        "Website": "https://kde.org"
    }
}
